[
	{
		"title": "БЫСТРЫЙ СТАРТ",
		"comment": "Мы&nbsp;привыкли уважать бизнес-интересы своих заказчиков, поэтому со&nbsp;своей стороны мы&nbsp;делаем всё, чтобы экономить ваше время.",
		"image": {
			"file": "rocket",
			"alt": "faq-1",
			"width": 48,
			"height": 70
		},

		"columns": [
			[
				{
					"title": "Какой порядок действий и&nbsp;что нужно для старта проекта?",
					"text": "Для старта проекта необходимо внести аванс. Все работы по&nbsp;подготовке макетов к&nbsp;вёрстке начинаются после поступления аванса на&nbsp;наш расчётный счет. Для того чтобы зарезервировать ресурсы под ваш проект, достаточно вашего устного согласия с&nbsp;нашим предложением по&nbsp;бюджету и&nbsp;срокам. Непосредственно сама вёрстка начинается на&nbsp;следующий рабочий день после внесения вами аванса. Отсчёт сроков проекта так же начинается на&nbsp;следующий рабочий день."
				},
				{
					"title": "В&nbsp;моем проекте есть нюансы, которые я&nbsp;хотел&nbsp;бы обсудить, как можно с&nbsp;вами связаться?",
					"text": "Вы&nbsp;сможете обсудить все существенные детали проекта с&nbsp;менеджером по&nbsp;телефону или скайпу. Для предметного обсуждения проекта нам в&nbsp;любом случае потребуется взглянуть на&nbsp;макеты страниц, поэтому давайте начнем с&nbsp;оформления заявки через форму заказа, которая расположена выше :) Спасибо!"
				}
			],

			[
				{
					"title": "Как быстро я&nbsp;получу ответ менеджера?",
					"text": "На&nbsp;первоначальную обработку заказа и&nbsp;подготовку списка уточняющих вопросов нам требуется порядка 1&nbsp;часа. В&nbsp;выходные и&nbsp;праздничные дни может потребоваться немного больше времени."
				},
				{
					"title": "У&nbsp;меня уже есть техническое задание на&nbsp;вёрстку, как его вам передать?",
					"text": "Вы&nbsp;можете прикрепить техническое задание и&nbsp;любые другие вспомогательные файлы непосредственно при оформлении заказа. Перетащите их&nbsp;мышкой в&nbsp;окно браузера или воспользуйтесь обычным загрузчиком. Также вы&nbsp;можете обратить внимание нашего менеджера на&nbsp;все существенные детали, которые сочтете нужными, уже в&nbsp;процессе общения. Пожалуйста, не&nbsp;волнуйтесь, мы&nbsp;умеем задавать правильные вопросы."
				}
			]

		]
	},

	{
		"title": "ГАРАНТИЯ ДЕДЛАЙНА",
		"comment": "Если мы&nbsp;участвуем в&nbsp;вашем проекте, вы&nbsp;можете быть спокойны и&nbsp;уверены хотя&nbsp;бы на&nbsp;счёт сроков окончания вёрстки.",
		"image": {
			"file": "clock",
			"alt": "faq-2",
			"width": 62,
			"height": 70
		},

		"columns": [
			[
				{
					"title": "Когда можно будет посмотреть, что получается?",
					"text": "При согласовании сроков выполнения проекта мы&nbsp;даём гарантию их&nbsp;соблюдения. Это означает, что по&nbsp;истечении согласованного времени клиент получает ссылку на&nbsp;результат, который будет полностью соответствовать требованиям, а&nbsp;также будет оттестирован и&nbsp;отлажен под все заявленные в&nbsp;заказе браузеры. Мы&nbsp;допускаем клиентов непосредственно к&nbsp;участию в&nbsp;процессе разработки только в&nbsp;исключительных случаях, во&nbsp;всех остальных случаях посмотреть, что получается, можно в&nbsp;оговоренный заранее день."
				},
				{
					"title": "Когда я&nbsp;смогу получить финальный результат?",
					"text": "Пожалуйста, закладывайте в&nbsp;ваш медиа-план время, которое может потребоваться на&nbsp;отладку сложных эффектов по&nbsp;вашему вкусу, согласование и&nbsp;подписание закрывающих проект документов. Мы&nbsp;передадим вам архив с&nbsp;html-исходниками в&nbsp;течение 1&nbsp;рабочего дня после согласования проекта, если к&nbsp;этому моменту проект уже оплачен полностью."
				}
			],

			[
				{
					"title": "Мой проект очень срочный, можно поставить его вне очереди?",
					"text": "Да, можно. За&nbsp;срочность, как правило, мы&nbsp;берём дополнительную наценку, но&nbsp;только в&nbsp;том случае, если располагаем свободными ресурсами, и&nbsp;если это не&nbsp;отразится на&nbsp;сроках сдачи других проектов. Мы&nbsp;рекомендуем заранее планировать тайминг проекта таким образом, чтобы на&nbsp;вёрстку в&nbsp;нем было предусмотрено не&nbsp;менее&nbsp;60% от&nbsp;сроков, затраченных на&nbsp;создание дизайн макетов."
				},
				{
					"title": "Сколько времени потребуется на согласование и финализацию проекта?",
					"text": "Мы&nbsp;всегда укладываемся в&nbsp;сроки, которые зависят только от&nbsp;нас. Мы&nbsp;можем легко рассчитать, сколько времени потребуется на&nbsp;сборку, тестирование и&nbsp;отладку вёрстки под изначальные требования. Однако мы&nbsp;не&nbsp;можем спрогнозировать, сколько времени потребуется, чтобы согласовать проект с&nbsp;клиентом, подписать все нужные документы и&nbsp;удовлетворить все возможные пожелания, которые появляются в&nbsp;процессе работы над проектом. Особенно в&nbsp;случае, когда нашим заказчиком является агентство."
				}
			]

		]
	},

	{
		"title": "БЕЗНАЛИЧНЫЙ РАСЧЁТ ПО ДОГОВОРУ",
		"comment": "Оплата по&nbsp;безналу производится на&nbsp;основании договор-счета, сканированную копию которого мы&nbsp;вышлем по&nbsp;электронной почте.",
		"image": {
			"file": "rouble",
			"alt": "faq-3",
			"width": 42,
			"height": 70
		},

		"columns": [
			[
				{
					"title": "Какой порядок расчётов?",
					"text": "Минимальный размер аванса, необходимый для начала проекта&nbsp;&mdash; 50%. Оставшаяся часть бюджета оплачивается по&nbsp;завершении работ. Обратите внимание: если вам требуется получать и&nbsp;использовать результат по&nbsp;мере готовности, необходимо будет оплатить 100% бюджета авансовым платежом."
				},
				{
					"title": "Работаете&nbsp;ли вы&nbsp;по&nbsp;агентской схеме расчётов?",
					"text": "Мы&nbsp;всегда открыты к&nbsp;диалогу."
				},
				{
					"title": "Можем&nbsp;ли мы&nbsp;подписать NDA?",
					"text": "Да."
				}
			],

			[
				{
					"title": "Как можно оплатить?",
					"text": "Мы&nbsp;принимаем оплату по&nbsp;безналичному расчёту от&nbsp;юридических лиц, а&nbsp;также с&nbsp;помощью банковских карт (Mastercard, Visa), с&nbsp;помощью кошелька в&nbsp;системе Яндекс.Деньги и&nbsp;посредством платежной системы PayPal. К&nbsp;сожалению, мы&nbsp;не&nbsp;принимаем WebMoney."
				},
				{
					"title": "Как получить документы для бухгалтерии?",
					"text": "После завершения проекта мы&nbsp;вышлем оригиналы всех необходимых для вашего бухгалтера документов, в&nbsp;том числе и&nbsp;акт оказанных услуг."
				}
			]

		]
	},

	{
		"title": "СОВРЕМЕННЫЙ ПОДХОД",
		"comment": "Чтобы превращать PSD в&nbsp;HTML, мы&nbsp;используем следующие технологии: HTML5, CSS3, Gulp, Jade, Stylus, NPM, а&nbsp;также (опционально) PostCSS, Haml, Grunt, Slim, Less, Sass, jQuery, AngularJS, ReactJS.",
		"image": {
			"file": "html5css3",
			"alt": "faq-4",
			"width": 112,
			"height": 70
		},

		"columns": [
			[
				{
					"title": "Как понять, какие браузеры нужно учитывать?",
					"text": "Ответьте на&nbsp;вопрос: кто ваша целевая аудитория? Действительно&nbsp;ли вы&nbsp;ориентируетесь на&nbsp;людей, у&nbsp;которых за&nbsp;5&nbsp;лет не&nbsp;было подходящего случая обновить браузер? Поддержка ранних версий (ниже девятой) браузера Internet Explorer в&nbsp;наше время требуется только для специфической целевой аудитории. Например, если вы&nbsp;создаете сайт для сотрудников госучреждения. Мы&nbsp;можем поддержать сколь угодно древний браузер, если этого требует задача, но&nbsp;нужно&nbsp;ли именно это вашему проекту?"
				},
				{
					"title": "Используете&nbsp;ли вы&nbsp;систему контроля версий?",
					"text": "Да, внутри компании мы&nbsp;используем Git, также по&nbsp;необходимости можем подключиться к&nbsp;вашему репозиторию."
				},
				{
					"title": "В&nbsp;каком виде я&nbsp;получу результат?",
					"text": "Мы&nbsp;можем предоставить результат в&nbsp;виде минифицированного кода (оптимизированного по&nbsp;скорости загрузки), в&nbsp;виде обычного форматированного html/css, либо в&nbsp;формате одного из&nbsp;препроцессора."
				}
			],

			[
				{
					"title": "Можете&nbsp;ли вы&nbsp;сверстать мой сайт с&nbsp;использованием фреймворка Twitter Bootstrap?",
					"text": "Использование технологии Bootstrap не&nbsp;является для нас типовым подходом. Применение этого фреймворка иногда приводит к&nbsp;избыточности кода, однако тогда его использование оправдано. В&nbsp;случае, если вам необходим Bootstrap, сообщите об&nbsp;этом менеджеру проекта до&nbsp;начала работ по&nbsp;вёрстке."
				},
				{
					"title": "Можно&nbsp;ли сверстать мой сайт под ретину?",
					"text": "Да, можно. Для этого необходимо, чтобы графика, содержащаяся в&nbsp;PSD-макетах вашего сайта, была создана с&nbsp;запасом по&nbsp;качеству либо была не&nbsp;растровой, а&nbsp;векторной. Мы&nbsp;рекомендуем уже на&nbsp;этапе проектирования дизайна создавать графику с&nbsp;учетом особенностей Retina-дисплеев."
				}
			]

		]
	},

	{
		"title": "МЫ&nbsp;ИСПОЛЬЗУЕМ МЕТОДОЛОГИЮ БЭМ",
		"comment": "БЭМ&nbsp;&mdash; это методология, разработанная компанией Яндекс. Использование этого подхода в&nbsp;вёрстке позволяет упростить последующую поддержку сайта.",
		"image": {
			"file": "bem",
			"alt": "faq-5",
			"width": 82,
			"height": 70
		},
		"link": {
			"href": "http://ru.bem.info",
			"text": "http://ru.bem.info"
		},

		"columns": [
			[
				{
					"title": "Что такое БЭМ?",
					"text": "Методология БЭМ определяет принцип организации и&nbsp;хранения кода для удобства самих&nbsp;же разработчиков. Использование или не&nbsp;использование методологии БЭМ не&nbsp;заметно для непосвященного пользователя."
				},
				{
					"title": "В&nbsp;чём преимущества БЭМ?",
					"text": "Использование методологии БЭМ при разработке фронтенда в&nbsp;большинстве случаев облегчает последующую работу бэкенд-программистов. Использование подхода БЭМ позволяет делать блоки, из&nbsp;которых состоят страницы, менее зависимыми друг от&nbsp;друга, это упрощает последующую поддержку сайта. Условно говоря, удаление или добавление блоков на&nbsp;странице не&nbsp;влечет за&nbsp;собой поломок в&nbsp;вёрстке. Разработчики CSSSR применяют БЭМ в&nbsp;большинстве проектов."
				}
			],

			[
				{
					"title": "Как понять, нужен&nbsp;ли БЭМ в&nbsp;моем проекте?",
					"text": "Бывают ситуации, когда использование БЭМ неоправданно или нежелательно. Чаще всего это обусловлено специфическими техническими требованиями. Если вы&nbsp;плохо понимаете техническую строну вопроса, то, скореё всего, БЭМ точно не&nbsp;навредит вашему проекту."
				},
				{
					"title": "Что делать, если мне не&nbsp;нужен БЭМ?",
					"text": "Сообщите об&nbsp;этом менеджеру до&nbsp;начала работ над проектом. В&nbsp;порядке исключения из&nbsp;общего правила мы&nbsp;организуем код вашего сайта в&nbsp;соответствии с&nbsp;вашими техническими пожеланиями."
				}
			]

		]
	},

	{
		"title": "АДАПТИВ, РЕСПОНСИВ",
		"comment": "Мы&nbsp;делаем и&nbsp;то&nbsp;и&nbsp;другое. Нам потребуются макеты, которые показывают, как вёрстка сайта будет выглядеть на&nbsp;мобильных устройствах.",
		"image": {
			"file": "adaptive_responsive",
			"alt": "faq-6",
			"width": 80,
			"height": 80
		},

		"columns": [
			[
				{
					"title": "Что требуется для создания адаптивной вёрстки?",
					"text": "Потребуются макеты, из&nbsp;которых будет понятно поведение сайта на&nbsp;мобильных устройствах. Мы&nbsp;рекомендуем проектировать макеты адаптивных и&nbsp;респонсив сайтов под следующую ширину экранов: 320px, 768px, 960px, 1280px."
				},
				{
					"title": "Можно&nbsp;ли сделать сайт адаптивным не&nbsp;только по&nbsp;ширине, но&nbsp;и&nbsp;по&nbsp;высоте?",
					"text": "Да, это возможно. На&nbsp;профессиональном языке этот эффект называется &laquo;адаптивные экраны&raquo;. Макеты сайта должны быть логически поделены на&nbsp;экраны, прокручивание которых происходит посредством анимации, без использования стандартного скролла браузера."
				}
			],

			[
				{
					"title": "В&nbsp;чём разница между адаптивной и&nbsp;респонсив вёрсткой?",
					"text": "Адаптивная (adaptive) вёрстка подстраивается под конкретные размеры экранов, при этом не&nbsp;уделяется внимание промежуточным состояниям. То&nbsp;есть при изменении ширины окна браузера вёрстка сайта перестраивается только в&nbsp;определенные моменты. Отзывчивая (responsive) вёрстка подстраивается под все возможные размеры экранов, при этом по&nbsp;аналогии с&nbsp;адаптивной при определенной ширине предполагаются изменения в&nbsp;сетке сайта."
				}
			]

		]
	},

	{
		"title": "ЛЮБЫЕ ИСХОДНИКИ",
		"comment": "Мы&nbsp;верстаем из&nbsp;макетов, созданных в&nbsp;Adobe Photoshop, Adobe InDesign, Adobe Illustrator.",
		"image": {
			"file": "sources",
			"alt": "faq-7",
			"width": 102,
			"height": 71
		},

		"columns": [
			[
				{
					"title": "Почему важно создавать макеты шириной 960px?",
					"text": "Мы&nbsp;настоятельно рекомендуем всем веб-дизайнерам использовать стандарт 960 пикселей в&nbsp;ширину при проектировании сайтов. Технологии не&nbsp;стоят на&nbsp;месте, но&nbsp;по-прежнему, большое количество устройств, в&nbsp;частности, ноутбуки, нетбуки и&nbsp;планшеты, выпускается с&nbsp;шириной экранов 1024&nbsp;пикселей. Если ваш макет будет шире, перед тем как сверстать, нам всё равно придётся подогнать его под ширину экрана 1024 пикселя&nbsp;&mdash; это усложнит процесс вёрстки."
				}
			],

			[
				{
					"title": "Какие требования к&nbsp;макетам?",
					"text": "Для нас важно, чтобы внутри макетов царил иерархический порядок в&nbsp;структуре слоёв и&nbsp;папок. Естественно, все элементы страниц должны быть вынесены в&nbsp;отдельные слои. Все эффекты и&nbsp;методы наложения слоёв должны быть приведены в&nbsp;режим &laquo;normal&raquo;. Рекомендуем давать названия файлам макетов только на&nbsp;латинице. По&nbsp;возможности, все использованные в&nbsp;макетах маски нужно растрировать. Размеры шрифтов и&nbsp;другие параметры текстовых блоков должны быть выражены в&nbsp;целых пикселях."
				},
				{
					"title": "Работаете&nbsp;ли вы&nbsp;со&nbsp;sketch-исходниками?",
					"text": "Да, работаем."
				}
			]
		]
	}
]
